{
  "type": "service_account",
  "project_id": "massive-1090",
  "private_key_id": "d652e6e67ac67d8abb0dd0296148fa850b1594e9",
  "private_key": "-----BEGIN PRIVATE KEY-----\nMIIEvQIBADANBgkqhkiG9w0BAQEFAASCBKcwggSjAgEAAoIBAQC7zJLKZTvfgZWF\nEKda3nVOMRfNeSntNjCpZiE4Ec1iI8/lVXUjyrNYm+DsVrwmNb1IXiNxpqftrT1B\nxUcqT1bsvzJMQTdLb6ChDxusk4er9bl1nyoudapIpY6F0Tx9TG1SvjEhPITi+ORd\nsnDteuYj82RAd7z+lN7hTd+Y2IXJC6v6zG04gliyDovFR4EwGNRcoayqaRIc3UpY\n3whH7JEFerd4GQdM2Kz7IWWxjModEtGeefyLxxWe0rG0v9fJHVq11rWTkmfQh5MZ\nlUOJMHmRfn5UXwcGIRJN/HtztnDccv1YSGcn1LmT5jBd5gjyeGcYZo4JR4whYs1a\nMcUGVkzLAgMBAAECggEAH2tT+bmjITsoXUlSfoDuZkUPYuiNC6s/y++SyjMsRemQ\n7CD2hqTwiXgW0uOV+dyOzO83BdooiTqtH3ZWeC0q8VPxodFdY2kLGjcRXbeXAL2N\nKDEXWQuFkD7mj9vYP2xMdAXu6U0bPHAAoO5sN0cS/tvHH4QI4hzdBxvEt2kuRNq9\njXsdP7ClTc4/farQQEeUTXE3V3CgrwnXzwxQrxaZFkq+Kfp4ozV9UqlBwOO7zbpj\nnh8zH8JIcFoYQHrN5wfthD/A6cZxYz/zLCPhXjPNMRfnzijlZlZ6dPJMHe5Y3uYm\nC5oXCi/i6NhIUT3t5+6LIjsPql4lYAJ/EMrNmA/SNQKBgQD56nIx/VLm4Q0o2dIO\n07TiI3Kdw8QFks5ag4o8Q77HV0VA0iJl6p5cNwQQeglNpEIHOt30X9x60+VQM6gN\nRDRcDZLVKgRWEsdIyFUL4kSQooMazGJGwxRc8TkOa7oHGD0Qd4vj0HheAoBOeJ//\nXqNWIQumv51xTahAF3vwznQLxwKBgQDAXv8fLtwpgjFZHZR6bOzAmLZInR9R6gqq\n74lcFoAh5GFe3PTmYn5K7O/UV/24dzkx8wGILah0drLDWrUW/+lp9f8K7bJfK618\nOMfkk+CQsSFy0ppiWbk1dp2NyIDfFbTntkxPgIZwukOpeXJHUCK+aaarn5b9HO2N\nzXKW0+LO3QKBgGKvkG5rAQyIe+DQuqD+OmQ96SmhP0uQIAof/Ts06SXgMUmacNjb\n37K8Ss+S0Q+muCgQt8qi+/ZIrDmSXF74utBKz9t63wF6ItV7vhGWRMr0UV8IrBoT\nOHxHCOfH5Eqe6KYS/ttz28QLqszR1yRJI6iEHgy3h51RNAoy+88oRyzLAoGBALWj\nvS77dyS2atQjawQh/3Zne46a1WzqGUKHxOIv2LKnywzgg1lZ3Lfwew+8ObTI1jeE\npYio2+uD/I0bA+yAnSvQ/A2cnRTh0ACAOLZqrtrQda3Oj7mX0Jpbsq6iiJScEWHM\nrsdOqyKbrbHDG5WcZAH5Dkf0+4NpoiCHwdAKp5j9AoGAYFbOiY3sKD5OF3t+zySb\nvHfeRbT1eV99ExiB7o9t+0J2B7F5hH/apO8FHkz1yycJlP+SxyAURnWTmwjmMcot\nQCjqSZufAYuMHdWKZVpfsvYNWRHdecJhuXxENKXR0GClB0O9e6yogw72GML21dEq\ndCvlBMQ59rTljDQXU8GVcdk=\n-----END PRIVATE KEY-----\n",
  "client_email": "firebase-adminsdk-omqjk@massive-1090.iam.gserviceaccount.com",
  "client_id": "109353673454473762100",
  "auth_uri": "https://accounts.google.com/o/oauth2/auth",
  "token_uri": "https://oauth2.googleapis.com/token",
  "auth_provider_x509_cert_url": "https://www.googleapis.com/oauth2/v1/certs",
  "client_x509_cert_url": "https://www.googleapis.com/robot/v1/metadata/x509/firebase-adminsdk-omqjk%40massive-1090.iam.gserviceaccount.com"
}
